Sashwat’s 479X Blog - Method Behind the Madness? A Deep Dive into Maryland’s Playcalling Mindset
…
So then, out of 2,459 rushes run on 3rd and 6 in the last 4-and-change years in college football, just 971, or 39.5% of them, gain 6 or more than 6 yards.

NOTE: The above calculation comes from 871 runs that gained 6 or more yards but did not score a touchdown, as well as 100 runs on 3rd and 6, which, logically, implies that they gained at least 6 yards.

So running on 3rd and 6 doesn’t actually seem like the worst play in the world, as over 40% of those attempts actually end up getting the job (or more!) done.

So who are our most frequent users (or abusers?) of this play?

Code

threeandsixrunTeams <- threeandsixruns |> group_by(pos_team) |> summarise(instances = n()) |> arrange(desc(instances))
threeandsixrunTeams

# A tibble: 261 × 2
   pos_team         instances
   <chr>                <int>
 1 Navy                    49
 2 Army                    42
 3 Air Force               30
 4 Georgia Southern        28
 5 Baylor                  25
 6 Oklahoma State          24
 7 Kent State              23
 8 Louisiana               23
 9 New Mexico              23
10 Arkansas                22
# ℹ 251 more rows
…
`summarise()` has grouped output by 'def_pos_team'. You can override using the
`.groups` argument.

Code

final1 <- temp1 |> 
  group_by(def_pos_team) |> 
  summarise(conversionsAllowed = sum(instances)) |> 
  arrange(desc(conversionsAllowed))

final1

# A tibble: 241 × 2
   def_pos_team  conversionsAllowed
   <chr>                      <int>
 1 Texas State                    8
 2 Cal Poly                       7
 3 Kent State                     7
 4 South Florida                  7
 5 Wyoming                        7
 6 Alabama                        6
 7 Baylor                         6
 8 Florida State                  6
 9 Illinois                       6
10 Northern Iowa                  6
# ℹ 231 more rows
…
`summarise()` has grouped output by 'def_pos_team'. You can override using the
`.groups` argument.

Code

final2 <- temp2 |> 
  group_by(def_pos_team) |> 
  summarise(conversionsAllowedFromRun = sum(instances)) |> 
  arrange(desc(conversionsAllowedFromRun))

final2

# A tibble: 101 × 2
   def_pos_team  conversionsAllowedFromRun
   <chr>                             <int>
 1 Alabama                               4
 2 Cal Poly                              3
 3 Illinois                              3
 4 Texas State                           3
 5 Virginia Tech                         3
 6 Akron                                 2
 7 Baylor                                2
 8 Bucknell                              2
 9 Duquesne                              2
10 Idaho                                 2
# ℹ 91 more rows
…
